<?xml version='1.0' encoding='UTF-8' ?>
<svg xmlns='http://www.w3.org/2000/svg' xmlns:xlink='http://www.w3.org/1999/xlink' viewBox='0 0 720.00 576.00'>
<defs>
  <style type='text/css'><![CDATA[
    line, polyline, polygon, path, rect, circle {
      fill: none;
      stroke: #000000;
      stroke-linecap: round;
      stroke-linejoin: round;
      stroke-miterlimit: 10.00;
    }
  ]]></style>
</defs>
<rect width='100%' height='100%' style='stroke: none; fill: #FFFFFF;'/>
<rect x='0.00' y='0.00' width='720.00' height='576.00' style='stroke-width: 1.75; stroke: #FFFFFF; fill: #FFFFFF;' />
<defs>
  <clipPath id='cpNTMuNjZ8NzExLjAzfDUyNS40N3wzNy4yOA=='>
    <rect x='53.66' y='37.28' width='657.38' height='488.19' />
  </clipPath>
</defs>
<rect x='53.66' y='37.28' width='657.38' height='488.19' style='stroke-width: 1.75; stroke: none; fill: #FFFFFF;' clip-path='url(#cpNTMuNjZ8NzExLjAzfDUyNS40N3wzNy4yOA==)' />
<circle cx='487.33' cy='503.28' r='2.49pt' style='stroke-width: 0.71;' clip-path='url(#cpNTMuNjZ8NzExLjAzfDUyNS40N3wzNy4yOA==)' />
<circle cx='204.67' cy='502.62' r='2.49pt' style='stroke-width: 0.71;' clip-path='url(#cpNTMuNjZ8NzExLjAzfDUyNS40N3wzNy4yOA==)' />
<circle cx='572.13' cy='502.54' r='2.49pt' style='stroke-width: 0.71;' clip-path='url(#cpNTMuNjZ8NzExLjAzfDUyNS40N3wzNy4yOA==)' />
<circle cx='495.41' cy='502.05' r='2.49pt' style='stroke-width: 0.71;' clip-path='url(#cpNTMuNjZ8NzExLjAzfDUyNS40N3wzNy4yOA==)' />
<circle cx='398.50' cy='501.80' r='2.49pt' style='stroke-width: 0.71;' clip-path='url(#cpNTMuNjZ8NzExLjAzfDUyNS40N3wzNy4yOA==)' />
<circle cx='584.24' cy='501.31' r='2.49pt' style='stroke-width: 0.71;' clip-path='url(#cpNTMuNjZ8NzExLjAzfDUyNS40N3wzNy4yOA==)' />
<circle cx='196.60' cy='423.52' r='2.49pt' style='stroke-width: 0.71;' clip-path='url(#cpNTMuNjZ8NzExLjAzfDUyNS40N3wzNy4yOA==)' />
<circle cx='640.77' cy='495.27' r='2.49pt' style='stroke-width: 0.71;' clip-path='url(#cpNTMuNjZ8NzExLjAzfDUyNS40N3wzNy4yOA==)' />
<circle cx='555.98' cy='493.63' r='2.49pt' style='stroke-width: 0.71;' clip-path='url(#cpNTMuNjZ8NzExLjAzfDUyNS40N3wzNy4yOA==)' />
<circle cx='140.07' cy='418.21' r='2.49pt' style='stroke-width: 0.71;' clip-path='url(#cpNTMuNjZ8NzExLjAzfDUyNS40N3wzNy4yOA==)' />
<circle cx='188.52' cy='407.26' r='2.49pt' style='stroke-width: 0.71;' clip-path='url(#cpNTMuNjZ8NzExLjAzfDUyNS40N3wzNy4yOA==)' />
<circle cx='180.45' cy='340.00' r='2.49pt' style='stroke-width: 0.71;' clip-path='url(#cpNTMuNjZ8NzExLjAzfDUyNS40N3wzNy4yOA==)' />
<circle cx='281.40' cy='483.58' r='2.49pt' style='stroke-width: 0.71;' clip-path='url(#cpNTMuNjZ8NzExLjAzfDUyNS40N3wzNy4yOA==)' />
<circle cx='422.72' cy='481.21' r='2.49pt' style='stroke-width: 0.71;' clip-path='url(#cpNTMuNjZ8NzExLjAzfDUyNS40N3wzNy4yOA==)' />
<circle cx='547.90' cy='479.17' r='2.49pt' style='stroke-width: 0.71;' clip-path='url(#cpNTMuNjZ8NzExLjAzfDUyNS40N3wzNy4yOA==)' />
<circle cx='253.13' cy='479.01' r='2.49pt' style='stroke-width: 0.71;' clip-path='url(#cpNTMuNjZ8NzExLjAzfDUyNS40N3wzNy4yOA==)' />
<circle cx='446.95' cy='476.96' r='2.49pt' style='stroke-width: 0.71;' clip-path='url(#cpNTMuNjZ8NzExLjAzfDUyNS40N3wzNy4yOA==)' />
<circle cx='422.72' cy='473.78' r='2.49pt' style='stroke-width: 0.71;' clip-path='url(#cpNTMuNjZ8NzExLjAzfDUyNS40N3wzNy4yOA==)' />
<circle cx='366.19' cy='473.37' r='2.49pt' style='stroke-width: 0.71;' clip-path='url(#cpNTMuNjZ8NzExLjAzfDUyNS40N3wzNy4yOA==)' />
<circle cx='430.80' cy='473.20' r='2.49pt' style='stroke-width: 0.71;' clip-path='url(#cpNTMuNjZ8NzExLjAzfDUyNS40N3wzNy4yOA==)' />
<circle cx='491.37' cy='468.06' r='2.49pt' style='stroke-width: 0.71;' clip-path='url(#cpNTMuNjZ8NzExLjAzfDUyNS40N3wzNy4yOA==)' />
<circle cx='681.15' cy='466.99' r='2.49pt' style='stroke-width: 0.71;' clip-path='url(#cpNTMuNjZ8NzExLjAzfDUyNS40N3wzNy4yOA==)' />
<circle cx='511.56' cy='465.52' r='2.49pt' style='stroke-width: 0.71;' clip-path='url(#cpNTMuNjZ8NzExLjAzfDUyNS40N3wzNy4yOA==)' />
<circle cx='422.72' cy='465.44' r='2.49pt' style='stroke-width: 0.71;' clip-path='url(#cpNTMuNjZ8NzExLjAzfDUyNS40N3wzNy4yOA==)' />
<circle cx='390.42' cy='464.79' r='2.49pt' style='stroke-width: 0.71;' clip-path='url(#cpNTMuNjZ8NzExLjAzfDUyNS40N3wzNy4yOA==)' />
<circle cx='168.33' cy='382.58' r='2.49pt' style='stroke-width: 0.71;' clip-path='url(#cpNTMuNjZ8NzExLjAzfDUyNS40N3wzNy4yOA==)' />
<circle cx='551.94' cy='463.89' r='2.49pt' style='stroke-width: 0.71;' clip-path='url(#cpNTMuNjZ8NzExLjAzfDUyNS40N3wzNy4yOA==)' />
<circle cx='277.36' cy='463.72' r='2.49pt' style='stroke-width: 0.71;' clip-path='url(#cpNTMuNjZ8NzExLjAzfDUyNS40N3wzNy4yOA==)' />
<circle cx='293.51' cy='461.84' r='2.49pt' style='stroke-width: 0.71;' clip-path='url(#cpNTMuNjZ8NzExLjAzfDUyNS40N3wzNy4yOA==)' />
<circle cx='277.36' cy='461.19' r='2.49pt' style='stroke-width: 0.71;' clip-path='url(#cpNTMuNjZ8NzExLjAzfDUyNS40N3wzNy4yOA==)' />
<circle cx='406.57' cy='460.78' r='2.49pt' style='stroke-width: 0.71;' clip-path='url(#cpNTMuNjZ8NzExLjAzfDUyNS40N3wzNy4yOA==)' />
<circle cx='196.60' cy='376.94' r='2.49pt' style='stroke-width: 0.71;' clip-path='url(#cpNTMuNjZ8NzExLjAzfDUyNS40N3wzNy4yOA==)' />
<circle cx='281.40' cy='455.47' r='2.49pt' style='stroke-width: 0.71;' clip-path='url(#cpNTMuNjZ8NzExLjAzfDUyNS40N3wzNy4yOA==)' />
<circle cx='273.32' cy='454.41' r='2.49pt' style='stroke-width: 0.71;' clip-path='url(#cpNTMuNjZ8NzExLjAzfDUyNS40N3wzNy4yOA==)' />
<circle cx='277.36' cy='452.45' r='2.49pt' style='stroke-width: 0.71;' clip-path='url(#cpNTMuNjZ8NzExLjAzfDUyNS40N3wzNy4yOA==)' />
<circle cx='305.62' cy='451.22' r='2.49pt' style='stroke-width: 0.71;' clip-path='url(#cpNTMuNjZ8NzExLjAzfDUyNS40N3wzNy4yOA==)' />
<circle cx='341.97' cy='450.49' r='2.49pt' style='stroke-width: 0.71;' clip-path='url(#cpNTMuNjZ8NzExLjAzfDUyNS40N3wzNy4yOA==)' />
<circle cx='249.09' cy='449.83' r='2.49pt' style='stroke-width: 0.71;' clip-path='url(#cpNTMuNjZ8NzExLjAzfDUyNS40N3wzNy4yOA==)' />
<circle cx='305.62' cy='448.61' r='2.49pt' style='stroke-width: 0.71;' clip-path='url(#cpNTMuNjZ8NzExLjAzfDUyNS40N3wzNy4yOA==)' />
<circle cx='241.02' cy='446.89' r='2.49pt' style='stroke-width: 0.71;' clip-path='url(#cpNTMuNjZ8NzExLjAzfDUyNS40N3wzNy4yOA==)' />
<circle cx='289.47' cy='446.32' r='2.49pt' style='stroke-width: 0.71;' clip-path='url(#cpNTMuNjZ8NzExLjAzfDUyNS40N3wzNy4yOA==)' />
<circle cx='636.74' cy='445.91' r='2.49pt' style='stroke-width: 0.71;' clip-path='url(#cpNTMuNjZ8NzExLjAzfDUyNS40N3wzNy4yOA==)' />
<circle cx='273.32' cy='441.66' r='2.49pt' style='stroke-width: 0.71;' clip-path='url(#cpNTMuNjZ8NzExLjAzfDUyNS40N3wzNy4yOA==)' />
<circle cx='422.72' cy='441.17' r='2.49pt' style='stroke-width: 0.71;' clip-path='url(#cpNTMuNjZ8NzExLjAzfDUyNS40N3wzNy4yOA==)' />
<circle cx='241.02' cy='437.82' r='2.49pt' style='stroke-width: 0.71;' clip-path='url(#cpNTMuNjZ8NzExLjAzfDUyNS40N3wzNy4yOA==)' />
<circle cx='555.98' cy='437.66' r='2.49pt' style='stroke-width: 0.71;' clip-path='url(#cpNTMuNjZ8NzExLjAzfDUyNS40N3wzNy4yOA==)' />
<circle cx='261.21' cy='436.84' r='2.49pt' style='stroke-width: 0.71;' clip-path='url(#cpNTMuNjZ8NzExLjAzfDUyNS40N3wzNy4yOA==)' />
<circle cx='156.22' cy='353.73' r='2.49pt' style='stroke-width: 0.71;' clip-path='url(#cpNTMuNjZ8NzExLjAzfDUyNS40N3wzNy4yOA==)' />
<circle cx='285.43' cy='434.47' r='2.49pt' style='stroke-width: 0.71;' clip-path='url(#cpNTMuNjZ8NzExLjAzfDUyNS40N3wzNy4yOA==)' />
<circle cx='196.60' cy='267.85' r='2.49pt' style='stroke-width: 0.71;' clip-path='url(#cpNTMuNjZ8NzExLjAzfDUyNS40N3wzNy4yOA==)' />
<circle cx='341.97' cy='431.20' r='2.49pt' style='stroke-width: 0.71;' clip-path='url(#cpNTMuNjZ8NzExLjAzfDUyNS40N3wzNy4yOA==)' />
<circle cx='459.07' cy='430.87' r='2.49pt' style='stroke-width: 0.71;' clip-path='url(#cpNTMuNjZ8NzExLjAzfDUyNS40N3wzNy4yOA==)' />
<circle cx='249.09' cy='429.32' r='2.49pt' style='stroke-width: 0.71;' clip-path='url(#cpNTMuNjZ8NzExLjAzfDUyNS40N3wzNy4yOA==)' />
<circle cx='253.13' cy='426.30' r='2.49pt' style='stroke-width: 0.71;' clip-path='url(#cpNTMuNjZ8NzExLjAzfDUyNS40N3wzNy4yOA==)' />
<circle cx='313.70' cy='420.74' r='2.49pt' style='stroke-width: 0.71;' clip-path='url(#cpNTMuNjZ8NzExLjAzfDUyNS40N3wzNy4yOA==)' />
<circle cx='216.79' cy='337.80' r='2.49pt' style='stroke-width: 0.71;' clip-path='url(#cpNTMuNjZ8NzExLjAzfDUyNS40N3wzNy4yOA==)' />
<circle cx='358.12' cy='416.33' r='2.49pt' style='stroke-width: 0.71;' clip-path='url(#cpNTMuNjZ8NzExLjAzfDUyNS40N3wzNy4yOA==)' />
<circle cx='539.82' cy='415.59' r='2.49pt' style='stroke-width: 0.71;' clip-path='url(#cpNTMuNjZ8NzExLjAzfDUyNS40N3wzNy4yOA==)' />
<circle cx='289.47' cy='414.69' r='2.49pt' style='stroke-width: 0.71;' clip-path='url(#cpNTMuNjZ8NzExLjAzfDUyNS40N3wzNy4yOA==)' />
<circle cx='236.98' cy='411.42' r='2.49pt' style='stroke-width: 0.71;' clip-path='url(#cpNTMuNjZ8NzExLjAzfDUyNS40N3wzNy4yOA==)' />
<circle cx='204.67' cy='410.85' r='2.49pt' style='stroke-width: 0.71;' clip-path='url(#cpNTMuNjZ8NzExLjAzfDUyNS40N3wzNy4yOA==)' />
<circle cx='329.85' cy='409.71' r='2.49pt' style='stroke-width: 0.71;' clip-path='url(#cpNTMuNjZ8NzExLjAzfDUyNS40N3wzNy4yOA==)' />
<circle cx='224.86' cy='406.77' r='2.49pt' style='stroke-width: 0.71;' clip-path='url(#cpNTMuNjZ8NzExLjAzfDUyNS40N3wzNy4yOA==)' />
<circle cx='249.09' cy='403.17' r='2.49pt' style='stroke-width: 0.71;' clip-path='url(#cpNTMuNjZ8NzExLjAzfDUyNS40N3wzNy4yOA==)' />
<circle cx='212.75' cy='398.43' r='2.49pt' style='stroke-width: 0.71;' clip-path='url(#cpNTMuNjZ8NzExLjAzfDUyNS40N3wzNy4yOA==)' />
<circle cx='257.17' cy='396.96' r='2.49pt' style='stroke-width: 0.71;' clip-path='url(#cpNTMuNjZ8NzExLjAzfDUyNS40N3wzNy4yOA==)' />
<circle cx='107.76' cy='385.28' r='2.49pt' style='stroke-width: 0.71;' clip-path='url(#cpNTMuNjZ8NzExLjAzfDUyNS40N3wzNy4yOA==)' />
<circle cx='196.60' cy='381.92' r='2.49pt' style='stroke-width: 0.71;' clip-path='url(#cpNTMuNjZ8NzExLjAzfDUyNS40N3wzNy4yOA==)' />
<circle cx='95.65' cy='377.84' r='2.49pt' style='stroke-width: 0.71;' clip-path='url(#cpNTMuNjZ8NzExLjAzfDUyNS40N3wzNy4yOA==)' />
<circle cx='241.02' cy='375.96' r='2.49pt' style='stroke-width: 0.71;' clip-path='url(#cpNTMuNjZ8NzExLjAzfDUyNS40N3wzNy4yOA==)' />
<circle cx='140.07' cy='373.83' r='2.49pt' style='stroke-width: 0.71;' clip-path='url(#cpNTMuNjZ8NzExLjAzfDUyNS40N3wzNy4yOA==)' />
<circle cx='196.60' cy='367.79' r='2.49pt' style='stroke-width: 0.71;' clip-path='url(#cpNTMuNjZ8NzExLjAzfDUyNS40N3wzNy4yOA==)' />
<circle cx='220.83' cy='364.36' r='2.49pt' style='stroke-width: 0.71;' clip-path='url(#cpNTMuNjZ8NzExLjAzfDUyNS40N3wzNy4yOA==)' />
<circle cx='168.33' cy='363.46' r='2.49pt' style='stroke-width: 0.71;' clip-path='url(#cpNTMuNjZ8NzExLjAzfDUyNS40N3wzNy4yOA==)' />
<circle cx='228.90' cy='362.88' r='2.49pt' style='stroke-width: 0.71;' clip-path='url(#cpNTMuNjZ8NzExLjAzfDUyNS40N3wzNy4yOA==)' />
<circle cx='196.60' cy='361.74' r='2.49pt' style='stroke-width: 0.71;' clip-path='url(#cpNTMuNjZ8NzExLjAzfDUyNS40N3wzNy4yOA==)' />
<circle cx='184.49' cy='352.91' r='2.49pt' style='stroke-width: 0.71;' clip-path='url(#cpNTMuNjZ8NzExLjAzfDUyNS40N3wzNy4yOA==)' />
<circle cx='188.52' cy='352.18' r='2.49pt' style='stroke-width: 0.71;' clip-path='url(#cpNTMuNjZ8NzExLjAzfDUyNS40N3wzNy4yOA==)' />
<circle cx='212.75' cy='351.53' r='2.49pt' style='stroke-width: 0.71;' clip-path='url(#cpNTMuNjZ8NzExLjAzfDUyNS40N3wzNy4yOA==)' />
<circle cx='184.49' cy='350.38' r='2.49pt' style='stroke-width: 0.71;' clip-path='url(#cpNTMuNjZ8NzExLjAzfDUyNS40N3wzNy4yOA==)' />
<circle cx='192.56' cy='344.50' r='2.49pt' style='stroke-width: 0.71;' clip-path='url(#cpNTMuNjZ8NzExLjAzfDUyNS40N3wzNy4yOA==)' />
<circle cx='168.33' cy='344.33' r='2.49pt' style='stroke-width: 0.71;' clip-path='url(#cpNTMuNjZ8NzExLjAzfDUyNS40N3wzNy4yOA==)' />
<circle cx='220.83' cy='343.93' r='2.49pt' style='stroke-width: 0.71;' clip-path='url(#cpNTMuNjZ8NzExLjAzfDUyNS40N3wzNy4yOA==)' />
<circle cx='236.98' cy='341.47' r='2.49pt' style='stroke-width: 0.71;' clip-path='url(#cpNTMuNjZ8NzExLjAzfDUyNS40N3wzNy4yOA==)' />
<circle cx='119.88' cy='337.72' r='2.49pt' style='stroke-width: 0.71;' clip-path='url(#cpNTMuNjZ8NzExLjAzfDUyNS40N3wzNy4yOA==)' />
<circle cx='236.98' cy='336.24' r='2.49pt' style='stroke-width: 0.71;' clip-path='url(#cpNTMuNjZ8NzExLjAzfDUyNS40N3wzNy4yOA==)' />
<circle cx='172.37' cy='335.10' r='2.49pt' style='stroke-width: 0.71;' clip-path='url(#cpNTMuNjZ8NzExLjAzfDUyNS40N3wzNy4yOA==)' />
<circle cx='184.49' cy='334.69' r='2.49pt' style='stroke-width: 0.71;' clip-path='url(#cpNTMuNjZ8NzExLjAzfDUyNS40N3wzNy4yOA==)' />
<circle cx='107.76' cy='330.85' r='2.49pt' style='stroke-width: 0.71;' clip-path='url(#cpNTMuNjZ8NzExLjAzfDUyNS40N3wzNy4yOA==)' />
<circle cx='196.60' cy='328.64' r='2.49pt' style='stroke-width: 0.71;' clip-path='url(#cpNTMuNjZ8NzExLjAzfDUyNS40N3wzNy4yOA==)' />
<circle cx='236.98' cy='327.42' r='2.49pt' style='stroke-width: 0.71;' clip-path='url(#cpNTMuNjZ8NzExLjAzfDUyNS40N3wzNy4yOA==)' />
<circle cx='107.76' cy='327.17' r='2.49pt' style='stroke-width: 0.71;' clip-path='url(#cpNTMuNjZ8NzExLjAzfDUyNS40N3wzNy4yOA==)' />
<circle cx='140.07' cy='326.11' r='2.49pt' style='stroke-width: 0.71;' clip-path='url(#cpNTMuNjZ8NzExLjAzfDUyNS40N3wzNy4yOA==)' />
<circle cx='156.22' cy='324.97' r='2.49pt' style='stroke-width: 0.71;' clip-path='url(#cpNTMuNjZ8NzExLjAzfDUyNS40N3wzNy4yOA==)' />
<circle cx='111.80' cy='319.49' r='2.49pt' style='stroke-width: 0.71;' clip-path='url(#cpNTMuNjZ8NzExLjAzfDUyNS40N3wzNy4yOA==)' />
<circle cx='164.30' cy='318.92' r='2.49pt' style='stroke-width: 0.71;' clip-path='url(#cpNTMuNjZ8NzExLjAzfDUyNS40N3wzNy4yOA==)' />
<circle cx='196.60' cy='318.59' r='2.49pt' style='stroke-width: 0.71;' clip-path='url(#cpNTMuNjZ8NzExLjAzfDUyNS40N3wzNy4yOA==)' />
<circle cx='236.98' cy='315.57' r='2.49pt' style='stroke-width: 0.71;' clip-path='url(#cpNTMuNjZ8NzExLjAzfDUyNS40N3wzNy4yOA==)' />
<circle cx='140.07' cy='315.32' r='2.49pt' style='stroke-width: 0.71;' clip-path='url(#cpNTMuNjZ8NzExLjAzfDUyNS40N3wzNy4yOA==)' />
<circle cx='103.73' cy='313.77' r='2.49pt' style='stroke-width: 0.71;' clip-path='url(#cpNTMuNjZ8NzExLjAzfDUyNS40N3wzNy4yOA==)' />
<circle cx='83.54' cy='312.63' r='2.49pt' style='stroke-width: 0.71;' clip-path='url(#cpNTMuNjZ8NzExLjAzfDUyNS40N3wzNy4yOA==)' />
<circle cx='95.65' cy='312.06' r='2.49pt' style='stroke-width: 0.71;' clip-path='url(#cpNTMuNjZ8NzExLjAzfDUyNS40N3wzNy4yOA==)' />
<circle cx='152.18' cy='307.23' r='2.49pt' style='stroke-width: 0.71;' clip-path='url(#cpNTMuNjZ8NzExLjAzfDUyNS40N3wzNy4yOA==)' />
<circle cx='148.14' cy='306.99' r='2.49pt' style='stroke-width: 0.71;' clip-path='url(#cpNTMuNjZ8NzExLjAzfDUyNS40N3wzNy4yOA==)' />
<circle cx='224.86' cy='305.60' r='2.49pt' style='stroke-width: 0.71;' clip-path='url(#cpNTMuNjZ8NzExLjAzfDUyNS40N3wzNy4yOA==)' />
<circle cx='224.86' cy='305.11' r='2.49pt' style='stroke-width: 0.71;' clip-path='url(#cpNTMuNjZ8NzExLjAzfDUyNS40N3wzNy4yOA==)' />
<circle cx='200.64' cy='303.97' r='2.49pt' style='stroke-width: 0.71;' clip-path='url(#cpNTMuNjZ8NzExLjAzfDUyNS40N3wzNy4yOA==)' />
<circle cx='164.30' cy='303.07' r='2.49pt' style='stroke-width: 0.71;' clip-path='url(#cpNTMuNjZ8NzExLjAzfDUyNS40N3wzNy4yOA==)' />
<circle cx='172.37' cy='302.00' r='2.49pt' style='stroke-width: 0.71;' clip-path='url(#cpNTMuNjZ8NzExLjAzfDUyNS40N3wzNy4yOA==)' />
<circle cx='127.95' cy='301.51' r='2.49pt' style='stroke-width: 0.71;' clip-path='url(#cpNTMuNjZ8NzExLjAzfDUyNS40N3wzNy4yOA==)' />
<circle cx='111.80' cy='299.23' r='2.49pt' style='stroke-width: 0.71;' clip-path='url(#cpNTMuNjZ8NzExLjAzfDUyNS40N3wzNy4yOA==)' />
<circle cx='136.03' cy='298.00' r='2.49pt' style='stroke-width: 0.71;' clip-path='url(#cpNTMuNjZ8NzExLjAzfDUyNS40N3wzNy4yOA==)' />
<circle cx='184.49' cy='297.76' r='2.49pt' style='stroke-width: 0.71;' clip-path='url(#cpNTMuNjZ8NzExLjAzfDUyNS40N3wzNy4yOA==)' />
<circle cx='87.57' cy='293.10' r='2.49pt' style='stroke-width: 0.71;' clip-path='url(#cpNTMuNjZ8NzExLjAzfDUyNS40N3wzNy4yOA==)' />
<circle cx='119.88' cy='288.77' r='2.49pt' style='stroke-width: 0.71;' clip-path='url(#cpNTMuNjZ8NzExLjAzfDUyNS40N3wzNy4yOA==)' />
<circle cx='176.41' cy='288.19' r='2.49pt' style='stroke-width: 0.71;' clip-path='url(#cpNTMuNjZ8NzExLjAzfDUyNS40N3wzNy4yOA==)' />
<circle cx='107.76' cy='286.15' r='2.49pt' style='stroke-width: 0.71;' clip-path='url(#cpNTMuNjZ8NzExLjAzfDUyNS40N3wzNy4yOA==)' />
<circle cx='228.90' cy='283.86' r='2.49pt' style='stroke-width: 0.71;' clip-path='url(#cpNTMuNjZ8NzExLjAzfDUyNS40N3wzNy4yOA==)' />
<circle cx='228.90' cy='283.78' r='2.49pt' style='stroke-width: 0.71;' clip-path='url(#cpNTMuNjZ8NzExLjAzfDUyNS40N3wzNy4yOA==)' />
<circle cx='119.88' cy='282.80' r='2.49pt' style='stroke-width: 0.71;' clip-path='url(#cpNTMuNjZ8NzExLjAzfDUyNS40N3wzNy4yOA==)' />
<circle cx='119.88' cy='278.14' r='2.49pt' style='stroke-width: 0.71;' clip-path='url(#cpNTMuNjZ8NzExLjAzfDUyNS40N3wzNy4yOA==)' />
<circle cx='236.98' cy='276.92' r='2.49pt' style='stroke-width: 0.71;' clip-path='url(#cpNTMuNjZ8NzExLjAzfDUyNS40N3wzNy4yOA==)' />
<circle cx='107.76' cy='273.89' r='2.49pt' style='stroke-width: 0.71;' clip-path='url(#cpNTMuNjZ8NzExLjAzfDUyNS40N3wzNy4yOA==)' />
<circle cx='176.41' cy='268.58' r='2.49pt' style='stroke-width: 0.71;' clip-path='url(#cpNTMuNjZ8NzExLjAzfDUyNS40N3wzNy4yOA==)' />
<circle cx='136.03' cy='266.05' r='2.49pt' style='stroke-width: 0.71;' clip-path='url(#cpNTMuNjZ8NzExLjAzfDUyNS40N3wzNy4yOA==)' />
<circle cx='99.69' cy='264.25' r='2.49pt' style='stroke-width: 0.71;' clip-path='url(#cpNTMuNjZ8NzExLjAzfDUyNS40N3wzNy4yOA==)' />
<circle cx='216.79' cy='262.54' r='2.49pt' style='stroke-width: 0.71;' clip-path='url(#cpNTMuNjZ8NzExLjAzfDUyNS40N3wzNy4yOA==)' />
<circle cx='192.56' cy='261.80' r='2.49pt' style='stroke-width: 0.71;' clip-path='url(#cpNTMuNjZ8NzExLjAzfDUyNS40N3wzNy4yOA==)' />
<circle cx='140.07' cy='261.31' r='2.49pt' style='stroke-width: 0.71;' clip-path='url(#cpNTMuNjZ8NzExLjAzfDUyNS40N3wzNy4yOA==)' />
<circle cx='119.88' cy='261.06' r='2.49pt' style='stroke-width: 0.71;' clip-path='url(#cpNTMuNjZ8NzExLjAzfDUyNS40N3wzNy4yOA==)' />
<circle cx='107.76' cy='257.88' r='2.49pt' style='stroke-width: 0.71;' clip-path='url(#cpNTMuNjZ8NzExLjAzfDUyNS40N3wzNy4yOA==)' />
<circle cx='136.03' cy='257.63' r='2.49pt' style='stroke-width: 0.71;' clip-path='url(#cpNTMuNjZ8NzExLjAzfDUyNS40N3wzNy4yOA==)' />
<circle cx='164.30' cy='250.44' r='2.49pt' style='stroke-width: 0.71;' clip-path='url(#cpNTMuNjZ8NzExLjAzfDUyNS40N3wzNy4yOA==)' />
<circle cx='192.56' cy='249.62' r='2.49pt' style='stroke-width: 0.71;' clip-path='url(#cpNTMuNjZ8NzExLjAzfDUyNS40N3wzNy4yOA==)' />
<circle cx='216.79' cy='242.60' r='2.49pt' style='stroke-width: 0.71;' clip-path='url(#cpNTMuNjZ8NzExLjAzfDUyNS40N3wzNy4yOA==)' />
<circle cx='188.52' cy='242.35' r='2.49pt' style='stroke-width: 0.71;' clip-path='url(#cpNTMuNjZ8NzExLjAzfDUyNS40N3wzNy4yOA==)' />
<circle cx='172.37' cy='239.00' r='2.49pt' style='stroke-width: 0.71;' clip-path='url(#cpNTMuNjZ8NzExLjAzfDUyNS40N3wzNy4yOA==)' />
<circle cx='95.65' cy='235.81' r='2.49pt' style='stroke-width: 0.71;' clip-path='url(#cpNTMuNjZ8NzExLjAzfDUyNS40N3wzNy4yOA==)' />
<circle cx='152.18' cy='228.95' r='2.49pt' style='stroke-width: 0.71;' clip-path='url(#cpNTMuNjZ8NzExLjAzfDUyNS40N3wzNy4yOA==)' />
<circle cx='160.26' cy='228.87' r='2.49pt' style='stroke-width: 0.71;' clip-path='url(#cpNTMuNjZ8NzExLjAzfDUyNS40N3wzNy4yOA==)' />
<circle cx='111.80' cy='216.94' r='2.49pt' style='stroke-width: 0.71;' clip-path='url(#cpNTMuNjZ8NzExLjAzfDUyNS40N3wzNy4yOA==)' />
<circle cx='127.95' cy='211.22' r='2.49pt' style='stroke-width: 0.71;' clip-path='url(#cpNTMuNjZ8NzExLjAzfDUyNS40N3wzNy4yOA==)' />
<circle cx='216.79' cy='208.52' r='2.49pt' style='stroke-width: 0.71;' clip-path='url(#cpNTMuNjZ8NzExLjAzfDUyNS40N3wzNy4yOA==)' />
<circle cx='140.07' cy='197.90' r='2.49pt' style='stroke-width: 0.71;' clip-path='url(#cpNTMuNjZ8NzExLjAzfDUyNS40N3wzNy4yOA==)' />
<circle cx='131.99' cy='189.81' r='2.49pt' style='stroke-width: 0.71;' clip-path='url(#cpNTMuNjZ8NzExLjAzfDUyNS40N3wzNy4yOA==)' />
<circle cx='123.92' cy='187.52' r='2.49pt' style='stroke-width: 0.71;' clip-path='url(#cpNTMuNjZ8NzExLjAzfDUyNS40N3wzNy4yOA==)' />
<circle cx='140.07' cy='180.16' r='2.49pt' style='stroke-width: 0.71;' clip-path='url(#cpNTMuNjZ8NzExLjAzfDUyNS40N3wzNy4yOA==)' />
<circle cx='111.80' cy='170.11' r='2.49pt' style='stroke-width: 0.71;' clip-path='url(#cpNTMuNjZ8NzExLjAzfDUyNS40N3wzNy4yOA==)' />
<circle cx='148.14' cy='165.21' r='2.49pt' style='stroke-width: 0.71;' clip-path='url(#cpNTMuNjZ8NzExLjAzfDUyNS40N3wzNy4yOA==)' />
<circle cx='176.41' cy='161.86' r='2.49pt' style='stroke-width: 0.71;' clip-path='url(#cpNTMuNjZ8NzExLjAzfDUyNS40N3wzNy4yOA==)' />
<circle cx='107.76' cy='153.28' r='2.49pt' style='stroke-width: 0.71;' clip-path='url(#cpNTMuNjZ8NzExLjAzfDUyNS40N3wzNy4yOA==)' />
<circle cx='111.80' cy='137.02' r='2.49pt' style='stroke-width: 0.71;' clip-path='url(#cpNTMuNjZ8NzExLjAzfDUyNS40N3wzNy4yOA==)' />
<circle cx='83.54' cy='136.53' r='2.49pt' style='stroke-width: 0.71;' clip-path='url(#cpNTMuNjZ8NzExLjAzfDUyNS40N3wzNy4yOA==)' />
<circle cx='107.76' cy='135.79' r='2.49pt' style='stroke-width: 0.71;' clip-path='url(#cpNTMuNjZ8NzExLjAzfDUyNS40N3wzNy4yOA==)' />
<circle cx='176.41' cy='128.76' r='2.49pt' style='stroke-width: 0.71;' clip-path='url(#cpNTMuNjZ8NzExLjAzfDUyNS40N3wzNy4yOA==)' />
<circle cx='119.88' cy='127.95' r='2.49pt' style='stroke-width: 0.71;' clip-path='url(#cpNTMuNjZ8NzExLjAzfDUyNS40N3wzNy4yOA==)' />
<circle cx='131.99' cy='126.15' r='2.49pt' style='stroke-width: 0.71;' clip-path='url(#cpNTMuNjZ8NzExLjAzfDUyNS40N3wzNy4yOA==)' />
<circle cx='144.11' cy='100.82' r='2.49pt' style='stroke-width: 0.71;' clip-path='url(#cpNTMuNjZ8NzExLjAzfDUyNS40N3wzNy4yOA==)' />
<circle cx='152.18' cy='89.29' r='2.49pt' style='stroke-width: 0.71;' clip-path='url(#cpNTMuNjZ8NzExLjAzfDUyNS40N3wzNy4yOA==)' />
<circle cx='172.37' cy='59.47' r='2.49pt' style='stroke-width: 0.71;' clip-path='url(#cpNTMuNjZ8NzExLjAzfDUyNS40N3wzNy4yOA==)' />
<line x1='53.66' y1='407.67' x2='711.03' y2='407.67' style='stroke-width: 1.07; stroke-dasharray: 5.69,5.69; stroke-linecap: butt;' clip-path='url(#cpNTMuNjZ8NzExLjAzfDUyNS40N3wzNy4yOA==)' />
<line x1='241.02' y1='525.47' x2='241.02' y2='37.28' style='stroke-width: 1.07; stroke-dasharray: 5.69,5.69; stroke-linecap: butt;' clip-path='url(#cpNTMuNjZ8NzExLjAzfDUyNS40N3wzNy4yOA==)' />
<defs>
  <clipPath id='cpMC4wMHw3MjAuMDB8NTc2LjAwfDAuMDA='>
    <rect x='0.00' y='0.00' width='720.00' height='576.00' />
  </clipPath>
</defs>
<polyline points='53.66,525.47 53.66,37.28 ' style='stroke-width: 1.75; stroke-linecap: butt;' clip-path='url(#cpMC4wMHw3MjAuMDB8NTc2LjAwfDAuMDA=)' />
<g clip-path='url(#cpMC4wMHw3MjAuMDB8NTc2LjAwfDAuMDA=)'><text x='37.58' y='510.68' style='font-size: 14.40px; fill: #4D4D4D; font-family: Liberation Sans;' textLength='8.01px' lengthAdjust='spacingAndGlyphs'>0</text></g>
<g clip-path='url(#cpMC4wMHw3MjAuMDB8NTc2LjAwfDAuMDA=)'><text x='29.57' y='428.96' style='font-size: 14.40px; fill: #4D4D4D; font-family: Liberation Sans;' textLength='16.02px' lengthAdjust='spacingAndGlyphs'>10</text></g>
<g clip-path='url(#cpMC4wMHw3MjAuMDB8NTc2LjAwfDAuMDA=)'><text x='29.57' y='347.25' style='font-size: 14.40px; fill: #4D4D4D; font-family: Liberation Sans;' textLength='16.02px' lengthAdjust='spacingAndGlyphs'>20</text></g>
<g clip-path='url(#cpMC4wMHw3MjAuMDB8NTc2LjAwfDAuMDA=)'><text x='29.57' y='265.53' style='font-size: 14.40px; fill: #4D4D4D; font-family: Liberation Sans;' textLength='16.02px' lengthAdjust='spacingAndGlyphs'>30</text></g>
<g clip-path='url(#cpMC4wMHw3MjAuMDB8NTc2LjAwfDAuMDA=)'><text x='29.57' y='183.81' style='font-size: 14.40px; fill: #4D4D4D; font-family: Liberation Sans;' textLength='16.02px' lengthAdjust='spacingAndGlyphs'>40</text></g>
<g clip-path='url(#cpMC4wMHw3MjAuMDB8NTc2LjAwfDAuMDA=)'><text x='29.57' y='102.09' style='font-size: 14.40px; fill: #4D4D4D; font-family: Liberation Sans;' textLength='16.02px' lengthAdjust='spacingAndGlyphs'>50</text></g>
<polyline points='49.17,505.73 53.66,505.73 ' style='stroke-width: 1.75; stroke: #333333; stroke-linecap: butt;' clip-path='url(#cpMC4wMHw3MjAuMDB8NTc2LjAwfDAuMDA=)' />
<polyline points='49.17,424.01 53.66,424.01 ' style='stroke-width: 1.75; stroke: #333333; stroke-linecap: butt;' clip-path='url(#cpMC4wMHw3MjAuMDB8NTc2LjAwfDAuMDA=)' />
<polyline points='49.17,342.29 53.66,342.29 ' style='stroke-width: 1.75; stroke: #333333; stroke-linecap: butt;' clip-path='url(#cpMC4wMHw3MjAuMDB8NTc2LjAwfDAuMDA=)' />
<polyline points='49.17,260.57 53.66,260.57 ' style='stroke-width: 1.75; stroke: #333333; stroke-linecap: butt;' clip-path='url(#cpMC4wMHw3MjAuMDB8NTc2LjAwfDAuMDA=)' />
<polyline points='49.17,178.86 53.66,178.86 ' style='stroke-width: 1.75; stroke: #333333; stroke-linecap: butt;' clip-path='url(#cpMC4wMHw3MjAuMDB8NTc2LjAwfDAuMDA=)' />
<polyline points='49.17,97.14 53.66,97.14 ' style='stroke-width: 1.75; stroke: #333333; stroke-linecap: butt;' clip-path='url(#cpMC4wMHw3MjAuMDB8NTc2LjAwfDAuMDA=)' />
<polyline points='53.66,525.47 711.03,525.47 ' style='stroke-width: 1.75; stroke-linecap: butt;' clip-path='url(#cpMC4wMHw3MjAuMDB8NTc2LjAwfDAuMDA=)' />
<polyline points='79.50,529.95 79.50,525.47 ' style='stroke-width: 1.75; stroke: #333333; stroke-linecap: butt;' clip-path='url(#cpMC4wMHw3MjAuMDB8NTc2LjAwfDAuMDA=)' />
<polyline points='160.26,529.95 160.26,525.47 ' style='stroke-width: 1.75; stroke: #333333; stroke-linecap: butt;' clip-path='url(#cpMC4wMHw3MjAuMDB8NTc2LjAwfDAuMDA=)' />
<polyline points='241.02,529.95 241.02,525.47 ' style='stroke-width: 1.75; stroke: #333333; stroke-linecap: butt;' clip-path='url(#cpMC4wMHw3MjAuMDB8NTc2LjAwfDAuMDA=)' />
<polyline points='321.78,529.95 321.78,525.47 ' style='stroke-width: 1.75; stroke: #333333; stroke-linecap: butt;' clip-path='url(#cpMC4wMHw3MjAuMDB8NTc2LjAwfDAuMDA=)' />
<polyline points='402.53,529.95 402.53,525.47 ' style='stroke-width: 1.75; stroke: #333333; stroke-linecap: butt;' clip-path='url(#cpMC4wMHw3MjAuMDB8NTc2LjAwfDAuMDA=)' />
<polyline points='483.29,529.95 483.29,525.47 ' style='stroke-width: 1.75; stroke: #333333; stroke-linecap: butt;' clip-path='url(#cpMC4wMHw3MjAuMDB8NTc2LjAwfDAuMDA=)' />
<polyline points='564.05,529.95 564.05,525.47 ' style='stroke-width: 1.75; stroke: #333333; stroke-linecap: butt;' clip-path='url(#cpMC4wMHw3MjAuMDB8NTc2LjAwfDAuMDA=)' />
<polyline points='644.81,529.95 644.81,525.47 ' style='stroke-width: 1.75; stroke: #333333; stroke-linecap: butt;' clip-path='url(#cpMC4wMHw3MjAuMDB8NTc2LjAwfDAuMDA=)' />
<g clip-path='url(#cpMC4wMHw3MjAuMDB8NTc2LjAwfDAuMDA=)'><text x='69.49' y='543.44' style='font-size: 14.40px; fill: #4D4D4D; font-family: Liberation Sans;' textLength='20.02px' lengthAdjust='spacingAndGlyphs'>5.4</text></g>
<g clip-path='url(#cpMC4wMHw3MjAuMDB8NTc2LjAwfDAuMDA=)'><text x='150.25' y='543.44' style='font-size: 14.40px; fill: #4D4D4D; font-family: Liberation Sans;' textLength='20.02px' lengthAdjust='spacingAndGlyphs'>5.6</text></g>
<g clip-path='url(#cpMC4wMHw3MjAuMDB8NTc2LjAwfDAuMDA=)'><text x='231.01' y='543.44' style='font-size: 14.40px; fill: #4D4D4D; font-family: Liberation Sans;' textLength='20.02px' lengthAdjust='spacingAndGlyphs'>5.8</text></g>
<g clip-path='url(#cpMC4wMHw3MjAuMDB8NTc2LjAwfDAuMDA=)'><text x='311.77' y='543.44' style='font-size: 14.40px; fill: #4D4D4D; font-family: Liberation Sans;' textLength='20.02px' lengthAdjust='spacingAndGlyphs'>6.0</text></g>
<g clip-path='url(#cpMC4wMHw3MjAuMDB8NTc2LjAwfDAuMDA=)'><text x='392.53' y='543.44' style='font-size: 14.40px; fill: #4D4D4D; font-family: Liberation Sans;' textLength='20.02px' lengthAdjust='spacingAndGlyphs'>6.2</text></g>
<g clip-path='url(#cpMC4wMHw3MjAuMDB8NTc2LjAwfDAuMDA=)'><text x='473.28' y='543.44' style='font-size: 14.40px; fill: #4D4D4D; font-family: Liberation Sans;' textLength='20.02px' lengthAdjust='spacingAndGlyphs'>6.4</text></g>
<g clip-path='url(#cpMC4wMHw3MjAuMDB8NTc2LjAwfDAuMDA=)'><text x='554.04' y='543.44' style='font-size: 14.40px; fill: #4D4D4D; font-family: Liberation Sans;' textLength='20.02px' lengthAdjust='spacingAndGlyphs'>6.6</text></g>
<g clip-path='url(#cpMC4wMHw3MjAuMDB8NTc2LjAwfDAuMDA=)'><text x='634.80' y='543.44' style='font-size: 14.40px; fill: #4D4D4D; font-family: Liberation Sans;' textLength='20.02px' lengthAdjust='spacingAndGlyphs'>6.8</text></g>
<g clip-path='url(#cpMC4wMHw3MjAuMDB8NTc2LjAwfDAuMDA=)'><text x='335.33' y='563.30' style='font-size: 18.00px; font-family: Liberation Sans;' textLength='94.03px' lengthAdjust='spacingAndGlyphs'>Ultimate pH</text></g>
<g clip-path='url(#cpMC4wMHw3MjAuMDB8NTc2LjAwfDAuMDA=)'><text transform='translate(21.35,442.14) rotate(-90)' style='font-size: 18.00px; font-family: Liberation Sans;' textLength='321.53px' lengthAdjust='spacingAndGlyphs'>Residual glucose concentration (μmol/g)</text></g>
</svg>
