x,y
6.41,0.30
5.71,0.38
6.62,0.39
6.43,0.45
6.19,0.48
6.65,0.54
5.69,10.06
6.79,1.28
6.58,1.48
5.55,10.71
5.67,12.05
5.65,20.28
5.9,2.71
6.25,3
6.56,3.25
5.83,3.27
6.31,3.52
6.25,3.91
6.11,3.96
6.27,3.98
6.42,4.61
6.89,4.74
6.47,4.92
6.25,4.93
6.17,5.01
5.62,15.07
6.57,5.12
5.89,5.14
5.93,5.37
5.89,5.45
6.21,5.5
5.69,15.76
5.9,6.15
5.88,6.28
5.89,6.52
5.96,6.67
6.05,6.76
5.82,6.84
5.96,6.99
5.80,7.20
5.92,7.27
6.78,7.32
5.88,7.84
6.25,7.9
5.8,8.31
6.58,8.33
5.85,8.43
5.59,18.6
5.91,8.72
5.69,29.11
6.05,9.12
6.34,9.16
5.82,9.35
5.83,9.72
5.98,10.40
5.74,20.55
6.09,10.94
6.54,11.03
5.92,11.14
5.79,11.54
5.71,11.61
6.02,11.75
5.76,12.11
5.82,12.55
5.73,13.13
5.84,13.31
5.47,14.74
5.69,15.15
5.44,15.65
5.8,15.88
5.55,16.14
5.69,16.88
5.75,17.30
5.62,17.41
5.77,17.48
5.69,17.62
5.66,18.7
5.67,18.79
5.73,18.87
5.66,19.01
5.68,19.73
5.62,19.75
5.75,19.80
5.79,20.1
5.5,20.56
5.79,20.74
5.63,20.88
5.66,20.93
5.47,21.4
5.69,21.67
5.79,21.82
5.47,21.85
5.55,21.98
5.59,22.12
5.48,22.79
5.61,22.86
5.69,22.9
5.79,23.27
5.55,23.3
5.46,23.49
5.41,23.63
5.44,23.7
5.58,24.29
5.57,24.32
5.76,24.49
5.76,24.55
5.7,24.69
5.61,24.8
5.63,24.93
5.52,24.99
5.48,25.27
5.54,25.42
5.66,25.45
5.42,26.02
5.5,26.55
5.64,26.62
5.47,26.87
5.77,27.15
5.77,27.16
5.5,27.28
5.5,27.85
5.79,28.00
5.47,28.37
5.64,29.02
5.54,29.33
5.45,29.55
5.74,29.76
5.68,29.85
5.55,29.91
5.5,29.94
5.47,30.33
5.54,30.36
5.61,31.24
5.68,31.34
5.74,32.20
5.67,32.23
5.63,32.64
5.44,33.03
5.58,33.87
5.6,33.88
5.48,35.34
5.52,36.04
5.74,36.37
5.55,37.67
5.53,38.66
5.51,38.94
5.55,39.84
5.48,41.07
5.57,41.67
5.64,42.08
5.47,43.13
5.48,45.12
5.41,45.18
5.47,45.27
5.64,46.13
5.5,46.23
5.53,46.45
5.56,49.55
5.58,50.96
5.63,54.61
